<?xml version="1.0" encoding="UTF-8"?>
<svg width="414" height="264" viewBox="0 0 414 264" fill="none" xmlns="http://www.w3.org/2000/svg">
<g filter="url(#filter0_di_768_10040)">
<path d="M33 24H330.204C357.153 24 379 45.8466 379 72.7958V219.152H33V24Z" fill="#432762"/>
<path d="M35.1591 26.1591H330.204C355.961 26.1591 376.841 47.0391 376.841 72.7958V216.993H35.1591V26.1591Z" stroke="#F4F4F4" stroke-width="4.31821"/>
</g>
<path d="M141.951 63.2593H141.087C140.792 63.2593 140.509 63.1422 140.301 62.9337C140.092 62.7253 139.975 62.4426 139.975 62.1478V51.5293C139.975 51.2345 140.092 50.9518 140.301 50.7434C140.509 50.5349 140.792 50.4178 141.087 50.4178H141.951V63.2593Z" fill="#381F7A"/>
<path d="M215.788 50.4187H216.652C216.947 50.4187 217.23 50.5358 217.438 50.7442C217.647 50.9527 217.764 51.2354 217.764 51.5302V62.1487C217.764 62.4435 217.647 62.7262 217.438 62.9346C217.23 63.1431 216.947 63.2602 216.652 63.2602H215.788V50.4187Z" fill="#381F7A"/>
<path d="M215.788 65.6982H216.652C216.947 65.6982 217.23 65.8153 217.438 66.0238C217.647 66.2322 217.764 66.515 217.764 66.8097V77.4282C217.763 77.7226 217.646 78.0047 217.437 78.2126C217.229 78.4205 216.947 78.5373 216.652 78.5373H215.788V65.6982Z" fill="#381F7A"/>
<path d="M214.43 184.513C214.841 184.814 215.264 185.146 215.699 185.511C215.847 185.635 215.997 185.763 216.149 185.894C219.776 189.042 224.128 194.157 228.267 199.472C230.191 197.577 232.435 195.316 234.828 192.871C235.833 193.193 236.44 193.372 236.44 193.372L234.125 199.206L230.123 201.89C232.981 205.66 235.653 209.397 237.801 212.477C240.827 216.818 242.814 219.857 242.814 219.857H273.111L267.772 181.305L267.328 180.796L257.358 169.358L244.015 154.051L243.359 153.353L240.158 156.926L215.466 183.4L214.476 184.462L214.43 184.513Z" fill="#F9AF8F"/>
<path d="M142.147 85.9528L142.722 100.949L155.779 100.763L152.261 85.1145L142.537 85.9479C142.537 85.9479 142.397 85.9463 142.147 85.9528Z" fill="#F9AF8F"/>
<path d="M205.988 173.276H189.465C192.044 174.927 200.991 180.563 206.806 183C209.655 184.194 211.224 184.715 212.324 184.83C213.15 184.916 213.712 184.774 214.354 184.514L214.476 184.463C215.002 184.243 215.596 183.952 216.436 183.648C216.547 183.608 216.668 183.561 216.798 183.507C217.494 183.22 218.468 182.742 219.599 182.15C219.775 182.058 219.955 181.963 220.138 181.866C225.235 179.16 232.894 174.573 233.106 174.573L239.372 163.521L240.158 156.923L241.225 147.964L236.316 122.095L235.362 121.834L222.02 118.181L221.779 118.114L221.52 117.985L216.162 115.305L215.154 114.801L215.049 114.749L188.911 172.459L207.95 171.058L213.256 170.132C213.12 170.172 208.808 171.581 205.988 173.276Z" fill="#F9AF8F"/>
<path d="M221.518 117.985C221.459 118.493 221.454 118.97 221.671 119.331C221.694 119.369 221.719 119.406 221.746 119.441C222.425 120.305 223.042 121.663 223.042 121.663L235.504 123.186L235.362 121.834L233.775 106.723L221.056 109.598L220.666 109.687C220.666 109.687 220.74 113.244 221.592 115.799C221.803 116.431 221.604 117.243 221.518 117.985Z" fill="#F9AF8F"/>
<path d="M257.358 169.355C257.358 169.355 233.291 193.093 229.772 193.002C226.253 192.91 231.253 195.316 231.253 195.316L239.588 195.779L257.358 169.355Z" fill="#FFA180"/>
<path d="M222.788 205.372L232.659 216.993C232.715 217.059 232.785 217.112 232.863 217.149C232.941 217.187 233.026 217.207 233.113 217.209C233.199 217.211 233.285 217.194 233.365 217.161C233.445 217.127 233.516 217.077 233.576 217.014L237.804 212.477L267.331 180.794L270.598 177.288C270.703 177.176 270.762 177.028 270.763 176.874C270.764 176.72 270.707 176.571 270.604 176.457L261.277 166.165C261.22 166.102 261.15 166.052 261.073 166.018C260.996 165.983 260.912 165.965 260.828 165.964C260.743 165.963 260.659 165.98 260.581 166.013C260.503 166.046 260.433 166.095 260.375 166.157C259.816 166.751 258.763 167.867 257.36 169.355C252.334 174.68 242.759 184.776 234.827 192.874L236.439 193.374L234.195 199.028C234.149 199.144 234.07 199.242 233.966 199.312L230.123 201.891L227.278 203.801C227.15 203.886 226.995 203.921 226.843 203.898C226.691 203.875 226.553 203.795 226.457 203.675L225.763 202.808C225.71 202.742 225.644 202.688 225.569 202.648C225.495 202.609 225.413 202.586 225.328 202.58C225.244 202.573 225.16 202.585 225.08 202.613C225 202.641 224.928 202.685 224.866 202.742C224.042 203.506 223.366 204.103 222.871 204.496C222.807 204.547 222.753 204.611 222.714 204.683C222.675 204.755 222.651 204.835 222.643 204.917C222.636 204.998 222.644 205.081 222.669 205.159C222.694 205.237 222.734 205.31 222.788 205.372V205.372Z" fill="#70DDE5"/>
<path d="M266.754 172.464C266.754 172.464 232.556 208.901 228.286 211.662L239.125 219.208L276.907 183.663L266.754 172.464Z" fill="#52CED1"/>
<path d="M274.567 172.68C274.124 172.245 273.528 171.998 272.907 171.992C272.285 171.987 271.685 172.223 271.234 172.65C263.12 180.351 227.853 212.75 227.352 213.655C226.916 214.442 229.659 217.478 231.14 219.066C231.364 219.306 231.635 219.499 231.937 219.63C232.238 219.762 232.563 219.83 232.892 219.831L300.264 219.844L322 219.63C322 218.985 294.138 191.916 293.682 191.465L274.567 172.68Z" fill="#9B87FF"/>
<path d="M228.269 199.472C228.893 200.278 229.511 201.084 230.122 201.89L234.124 199.205L236.439 193.371C236.439 193.371 235.833 193.19 234.827 192.871C232.435 195.316 230.191 197.577 228.269 199.472Z" fill="#70DDE5"/>
<path d="M225.348 202.29L226.809 204.114L230.123 201.89C229.512 201.084 228.894 200.278 228.269 199.472C227.181 200.539 226.198 201.49 225.348 202.29Z" fill="#70DDE5"/>
<path d="M215.699 185.511C215.847 185.634 215.997 185.763 216.148 185.894C219.776 189.042 224.128 194.156 228.267 199.472C230.191 197.577 232.435 195.316 234.828 192.871C230.609 191.531 219.371 187.769 216.531 184.852L215.699 185.511Z" fill="#FFA180"/>
<path d="M242.09 158.395C242.144 158.298 243.88 155.171 244.002 154.199C244.009 154.145 244.013 154.095 244.015 154.048L243.359 153.35C243.359 153.35 243.138 156.173 242.09 158.395Z" fill="#FFA180"/>
<path d="M133.153 157.256C133.171 157.351 133.239 157.678 133.338 158.142C133.607 159.395 134.104 161.653 134.467 163.117L134.484 163.183C134.672 163.938 134.821 164.467 134.881 164.51C135.098 164.664 134.974 165.836 136.735 165.929C138.496 166.022 141.294 164.694 141.911 164.262V164.116L141.874 161.612L141.756 153.689L141.752 153.349L141.743 152.734L141.646 146.235C141.646 146.235 136.583 148.056 135.349 149.229C134.114 150.402 133.188 152.07 133.157 152.937C133.126 153.804 133.06 156.761 133.153 157.256Z" fill="#F9AF8F"/>
<path d="M144.544 118.535L141.168 117.054L136.024 121.787C135.677 121.844 135.335 121.934 135.004 122.055C133.923 122.437 132.264 123.323 131.496 125.286C130.303 128.331 129.727 129.442 130.508 131.624C131.29 133.806 131.788 134.917 131.788 134.917L131.837 135.006L133.194 137.485L133.924 138.827C133.924 138.827 134.181 140.011 134.781 140.486C135.357 140.944 136.435 141.338 138.534 141.05C139.857 140.869 141.59 139.689 142.948 138.45" fill="#F9AF8F"/>
<path d="M131.331 90.177C131.331 90.177 128.51 90.9879 128.121 93.3463C127.864 94.9107 127.982 96.289 128.816 96.9379C129.167 97.2111 129.695 97.4312 130.282 97.6472C130.869 97.8632 131.331 90.177 131.331 90.177Z" fill="#FCCBC4"/>
<path d="M142.398 99.9016L140.845 100.724L140.684 100.804C140.623 100.836 140.56 100.863 140.496 100.885C139.632 101.183 133.161 103.484 132.009 105.729C130.776 108.143 129.854 111.291 130.529 113.76C130.594 113.997 130.67 114.253 130.756 114.52C131.44 116.671 132.678 119.63 133.028 120.454C133.064 120.535 133.091 120.619 133.109 120.706C133.12 120.759 133.128 120.813 133.133 120.867C133.169 121.27 133.369 122.197 134.422 122.34C135.689 122.513 137.763 122.847 141.999 120.133" fill="#F9AF8F"/>
<path d="M141.601 85.9778C141.063 86.0092 140.328 86.0713 139.488 86.1962C136.823 86.592 133.101 87.6164 131.279 90.2722C130.995 90.683 130.764 91.1272 130.59 91.5949C129.838 93.6212 129.572 95.0866 129.582 96.165C129.583 96.3692 129.596 96.5732 129.62 96.776C129.657 97.1103 129.739 97.4382 129.862 97.7513V97.7513C130.191 98.571 130.748 98.974 131.144 99.2827C131.968 99.9138 132.917 101.041 141.599 100.966" fill="#F9AF8F"/>
<path d="M133.814 138.598L133.088 138.458C133.531 138.806 133.921 138.827 133.921 138.827C133.884 138.751 133.846 138.674 133.814 138.598Z" fill="#FCCBC4"/>
<path d="M130.467 118.083C131.151 120.067 133.106 120.692 133.106 120.692C133.073 120.623 133.106 120.59 133.08 120.52L131.856 119.841L131.517 114.531L135.406 113.142L135.818 113.512C135.818 113.512 135.609 111.865 134.871 111.002C134.027 110.014 133.595 110.137 133.06 110.467C132.743 110.662 132.236 111.235 131.764 111.901C131.766 111.931 131.773 111.961 131.784 111.989C131.945 112.318 131.945 113.762 131.945 113.762L130.752 114.522C130.699 114.35 130.648 114.184 130.6 114.025C130.189 115.071 129.897 116.431 130.467 118.083Z" fill="#FCCBC4"/>
<path d="M141.783 117.918C138.834 123.777 134.081 121.061 133.325 120.578C133.247 120.545 133.163 120.525 133.078 120.52L133.103 120.705C133.114 120.758 133.122 120.812 133.127 120.866C133.163 121.269 133.363 122.196 134.417 122.34C135.684 122.512 137.757 122.846 141.993 120.133" fill="#FFA180"/>
<path d="M133.814 138.598L133.924 138.827C133.36 135.628 137.513 132.722 137.646 132.635C137.511 132.713 132.514 135.593 133.814 138.598Z" fill="#FFA180"/>
<path d="M131.517 114.533L131.856 119.843L133.078 120.531C131.803 117.348 135.707 113.616 135.818 113.519L135.407 113.149L131.517 114.533Z" fill="#FCCBC4"/>
<path d="M133.078 120.521L133.12 120.552C131.902 118.085 135.71 113.636 135.813 113.516C135.707 113.614 131.805 117.338 133.078 120.521Z" fill="#FFA180"/>
<path d="M129.582 96.1675C129.583 96.3717 129.596 96.5757 129.62 96.7785L129.788 96.814C129.539 93.7156 130.976 90.8398 131.276 90.2764C130.994 90.6859 130.764 91.1289 130.59 91.595C129.838 93.6238 129.572 95.0891 129.582 96.1675Z" fill="#FFA180"/>
<path d="M130.508 131.624C131.29 133.805 131.784 134.917 131.784 134.917L131.833 135.006L132.196 134.546C132.196 134.546 131.002 131.09 130.879 130.636C130.756 130.182 131.002 129.196 131.331 128.002C132.656 123.201 136.106 122.199 136.106 122.199L135.004 122.055C133.923 122.437 132.264 123.323 131.496 125.286C130.303 128.331 129.727 129.442 130.508 131.624Z" fill="#FFA180"/>
<path d="M132.567 137.883L133.76 133.559L136.847 132.242L137.653 132.632C137.653 132.632 136.562 129.778 136.356 129.483C136.181 129.234 135.286 129.211 134.751 129.298C134.268 129.379 132.055 129.566 131.85 134.134C131.758 136.077 132.121 137.215 132.567 137.883Z" fill="#FCCBC4"/>
<path d="M132.567 137.883C132.71 138.102 132.887 138.296 133.092 138.458L133.817 138.599C132.519 135.593 137.511 132.715 137.65 132.634L136.844 132.243L133.757 133.56L132.567 137.883Z" fill="#FCCBC4"/>
<path d="M141.642 146.235C141.642 146.235 136.579 148.056 135.344 149.229C134.11 150.402 133.184 152.07 133.153 152.937C133.122 153.804 133.06 156.765 133.153 157.259C133.171 157.355 133.239 157.681 133.338 158.145L133.719 157.804C133.719 157.804 133.225 154.182 135.447 150.601C136.697 148.586 142.197 148.214 142.197 148.214" fill="#FFA180"/>
<path d="M135.113 155.915L135.329 159.094C135.329 159.094 134.403 161.27 134.634 163.462L133.828 163.478L135.113 155.915Z" fill="#FFA180"/>
<path d="M141.545 100.931C132.863 101.006 131.97 99.9146 131.147 99.2835C130.549 98.8241 129.601 98.1446 129.584 96.1675C130.606 99.2738 136.441 100.005 139.517 100.173C139.657 100.18 139.798 100.159 139.93 100.111C140.062 100.063 140.182 99.9887 140.285 99.8926C140.387 99.7964 140.469 99.6805 140.525 99.5519C140.582 99.4232 140.611 99.2845 140.612 99.1441C140.644 95.8733 140.266 89.3308 140.193 86.1027C141.032 85.9778 141.065 86.0092 141.602 85.9778" fill="#FFA180"/>
<path d="M130.604 114.024C130.65 114.185 130.701 114.351 130.756 114.521L131.95 113.76C131.95 113.76 131.95 112.32 131.788 111.987C131.777 111.959 131.77 111.929 131.768 111.899C131.449 112.344 131.167 112.814 130.924 113.304C130.815 113.527 130.706 113.766 130.604 114.024Z" fill="#FCCBC4"/>
<path d="M141.58 100.549L140.845 100.724L140.684 100.804C140.623 100.836 140.56 100.863 140.496 100.885C139.632 101.183 133.161 103.484 132.009 105.729C130.776 108.143 129.854 111.291 130.529 113.76C130.552 113.846 130.577 113.934 130.604 114.023C130.706 113.765 130.815 113.527 130.92 113.307C131.163 112.818 131.446 112.35 131.764 111.906V111.906C131.688 111.215 132.281 107.436 133.019 106.192C133.803 104.871 141.622 101.455 141.622 101.455" fill="#FFA180"/>
<path d="M141.622 101.249L140.922 101.373C140.922 101.373 140.223 106.641 140.676 108.163C141.129 109.686 141.581 111.25 141.581 111.25" fill="#FFA180"/>
<path d="M142.938 135.12C143 131.292 141.642 126.847 141.642 126.847Z" fill="#FFA180"/>
<path d="M141.292 147.038L141.312 152.429L141.93 153.294L142.053 147.12L141.292 147.038Z" fill="#FFA180"/>
<path d="M141.055 120.398L140.9 126.263L142.074 128.084L142.012 123.114V119.657L141.055 120.398Z" fill="#FFA180"/>
<path d="M142.147 85.9527L142.722 100.949L141.601 100.919V126.754C141.644 126.859 141.681 126.959 141.71 127.052L141.603 126.94L142.087 129.163C141.977 128.703 141.813 128.257 141.598 127.835V164.657C141.598 165.789 141.821 166.909 142.254 167.955C142.687 169 143.322 169.95 144.122 170.751C144.922 171.551 145.872 172.185 146.918 172.618C147.963 173.052 149.084 173.274 150.216 173.274H189.465C189.004 172.979 188.747 172.812 188.747 172.812L188.908 172.454L207.947 171.052L213.253 170.127C213.12 170.17 208.807 171.578 205.987 173.274H207.543C208.674 173.274 209.795 173.052 210.84 172.618C211.886 172.185 212.836 171.551 213.636 170.751C214.436 169.95 215.071 169 215.504 167.955C215.937 166.909 216.16 165.789 216.16 164.657V117.094C215.425 116.046 216.052 115.693 216.127 115.366L216.16 115.382V36.6171C216.16 35.4856 215.937 34.365 215.504 33.3196C215.071 32.2741 214.437 31.3241 213.636 30.5239C212.836 29.7238 211.886 29.089 210.841 28.656C209.796 28.2229 208.675 28 207.544 28H150.218C149.086 27.9999 147.966 28.2227 146.92 28.6557C145.875 29.0887 144.925 29.7235 144.124 30.5237C143.324 31.3239 142.69 32.2738 142.257 33.3194C141.824 34.3649 141.601 35.4855 141.601 36.6171V85.0661L141.951 84.9951L142.112 85.1184L142.147 85.9527Z" fill="#381F7A"/>
<path d="M151.444 169.891H206.356C209.699 169.891 212.409 167.181 212.409 163.837L212.409 38.3308C212.409 34.9877 209.699 32.2776 206.356 32.2776H151.444C148.101 32.2776 145.391 34.9877 145.391 38.3308V163.837C145.391 167.181 148.101 169.891 151.444 169.891Z" fill="#E9F9FF"/>
<path d="M221.518 117.985C221.518 117.985 220.141 122.136 220.632 123.578C220.632 123.578 221.407 119.306 221.712 118.741C222.016 118.177 221.515 117.985 221.515 117.985" fill="#FFA180"/>
<path d="M210.85 97.1562C212.084 103.453 215.912 105.922 220.666 109.689C220.767 109.77 220.869 109.845 220.972 109.917C225.698 113.236 232.026 108.269 232.026 108.269L228.753 171.058C228.753 171.058 232.334 170.193 236.903 169.204C241.471 168.215 242.212 160.56 242.583 159.079C242.954 157.597 245.361 136.297 245.793 132.964C246.225 129.63 245.608 126.852 243.386 123.024C241.163 119.196 238.755 102.527 238.63 101.664C238.505 100.802 237.824 98.0219 233.382 97.3424C229.824 96.7992 229.433 95.9005 228.201 95.1202C227.894 94.926 226.435 94.3577 226.225 94.3328C225.178 94.2094 224.677 94.3175 224.677 94.3175L216.533 88.822L216.381 88.7197L216.37 88.7124L216.344 88.6955C216.747 85.681 215.9 83.9351 214.59 84.0206C214.111 84.0504 213.571 84.3244 213.01 84.8693C212.871 85.0042 212.737 85.1364 212.607 85.2659C208.475 89.4362 209.65 91.0466 210.85 97.1562Z" fill="#F9AF8F"/>
<path d="M224.678 94.3941C224.678 94.3941 221.548 84.588 216.159 82.8495C214.245 82.2321 213.257 82.9728 213.01 84.9451C213.01 84.9451 216.127 81.3333 216.343 88.7729L224.678 94.3941Z" fill="#FCCBC4"/>
<path opacity="0.51" d="M220.665 109.687C220.665 109.687 223.897 111.209 229.494 108.986C229.494 108.986 222.991 111.415 220.028 109.067C217.065 106.719 220.665 109.687 220.665 109.687Z" fill="#FFA180"/>
<path d="M216.161 117.094V115.382L216.128 115.366C216.053 115.695 215.426 116.046 216.161 117.094Z" fill="#381F7A"/>
<path d="M221.612 118.725C221.612 118.704 221.741 118.645 221.741 118.645C221.741 118.645 222.796 117.282 222.086 116.201C221.376 115.12 221.468 109.812 221.468 109.812L221.056 109.6L220.665 109.688C220.665 109.688 220.74 113.245 221.592 115.8C221.803 116.432 221.604 117.245 221.518 117.986L216.161 115.384L216.153 116.512C216.321 116.754 217.252 117.399 217.64 117.649C219.523 118.853 219.799 118.823 221.268 118.945L221.612 118.725Z" fill="#FFA180"/>
<path d="M188.747 172.813C188.747 172.813 189.004 172.981 189.464 173.276H205.988C208.853 171.554 213.257 170.128 213.257 170.128L207.948 171.054L188.909 172.455L188.747 172.813Z" fill="#381F7A"/>
<path d="M221.274 179.656C221.257 179.693 221.218 179.779 221.157 179.907C221.2 179.824 221.239 179.74 221.274 179.656Z" fill="#FFA180"/>
<path d="M216.798 183.507C217.604 183.175 218.779 182.588 220.138 181.866C220.622 181.005 220.979 180.285 221.155 179.912C220.376 181.425 218.415 182.687 216.798 183.507Z" fill="#FFA180"/>
<path d="M189.464 173.276C192.044 174.927 200.99 180.563 206.806 183C209.655 184.194 211.224 184.715 212.324 184.83C213.15 184.916 213.712 184.774 214.353 184.514C214.179 184.492 213.82 184.333 213.335 184.07C210.784 182.693 204.746 178.468 203.687 176.301C203.217 175.334 204.352 174.258 205.988 173.276H189.464Z" fill="#FFA180"/>
<path d="M186.154 172.658L186.246 173.276H189.465C189.004 172.981 188.747 172.813 188.747 172.813L188.908 172.455L186.154 172.658Z" fill="#381F7A"/>
<path d="M212.324 184.83C213.15 184.916 213.712 184.774 214.354 184.514L214.476 184.463L214.43 184.513C214.981 184.916 215.559 185.378 216.149 185.894C217.769 184.927 219.05 183.051 219.599 182.15C219.783 181.849 219.886 181.657 219.893 181.642C219.277 182.103 217.2 182.838 215.466 183.402C214.59 183.687 213.803 183.929 213.335 184.07C213.053 184.156 212.887 184.204 212.887 184.204C212.673 184.388 212.484 184.598 212.324 184.83V184.83Z" fill="#FFA180"/>
<path d="M141.601 85.9776V100.92L142.722 100.95L142.147 85.9526C142.001 85.9583 141.817 85.9655 141.601 85.9776Z" fill="#381F7A"/>
<path d="M141.601 85.066V85.9817C141.817 85.9696 142.004 85.9623 142.147 85.9583L142.115 85.1184L141.954 84.9951L141.601 85.066Z" fill="#381F7A"/>
<path d="M216.344 88.7737L223.979 94.2546C223.979 94.2546 225.255 95.3653 225.214 94.7068C225.177 94.1087 226.978 94.6576 227.184 94.6713C226.877 94.4771 226.051 94.2635 225.841 94.2385C224.793 94.1152 224.679 94.3191 224.679 94.3191L216.533 88.822L216.344 88.7737Z" fill="#FFA180"/>
<path d="M212.608 85.2644C212.725 85.1749 212.858 85.0701 213.011 84.9484C216.074 82.4771 216.346 88.7762 216.346 88.7762L216.372 88.7125L216.346 88.6956C216.901 84.58 215.111 82.8302 213.011 84.8678C212.872 85 212.737 85.1322 212.608 85.2644Z" fill="#FFA180"/>
<path d="M210.85 97.1564C212.084 103.453 215.912 105.923 220.666 109.689C220.767 109.77 220.869 109.845 220.972 109.917C220.096 108.889 213.4 101.022 212.362 99.3785C211.25 97.619 210.973 91.9704 210.88 89.6547C210.788 87.3391 214.677 84.1916 214.677 84.1916L214.59 84.0215C214.111 84.0513 213.571 84.3254 213.01 84.8702C212.871 85.0051 212.737 85.1373 212.607 85.2668C208.475 89.4363 209.65 91.0467 210.85 97.1564Z" fill="#FFA180"/>
<path d="M141.522 126.983V139.578C141.577 139.526 143.491 137.681 143.126 134.516C142.952 133.011 142.589 131.262 142.251 129.828C142.005 128.781 141.772 127.894 141.638 127.41C141.615 127.33 141.595 127.249 141.579 127.193C141.541 127.053 141.522 126.983 141.522 126.983Z" fill="#F9AF8F"/>
<path d="M141.549 127.127C141.58 127.219 141.609 127.31 141.637 127.4C141.614 127.32 141.594 127.239 141.578 127.183L141.549 127.127Z" fill="#FFA180"/>
<path d="M133.631 137.566L133.924 138.827C133.924 138.827 134.181 140.011 134.781 140.486C135.357 140.944 136.435 141.338 138.534 141.05C139.439 140.926 140.533 140.332 141.572 139.578C142.286 139.06 143.05 137.223 142.591 137.285L141.523 139.579C141.577 139.526 143.492 137.681 143.127 134.517C142.953 133.012 142.59 131.263 142.252 129.829C143.077 134.212 142.017 137.053 141.522 138.075C141.453 138.22 141.377 138.362 141.292 138.499L141.259 138.524C140.907 138.788 137.811 141.035 135.756 140.104C133.575 139.115 133.965 136.933 133.965 136.933L133.631 137.566Z" fill="#FFA180"/>
<path d="M141.601 126.756V127.597C141.762 127.944 141.843 128.177 141.843 128.177C141.843 128.177 141.98 127.688 141.601 126.756Z" fill="#381F7A"/>
<path d="M139.526 125.069C140.584 125.731 141.266 126.929 141.598 127.642V126.802C141.597 126.797 141.595 126.792 141.593 126.787C141.328 126.133 140.194 125.434 139.526 125.069Z" fill="#FFA180"/>
<path d="M139.042 124.815C139.079 124.832 139.268 124.925 139.531 125.069C139.376 124.97 139.212 124.885 139.042 124.815V124.815Z" fill="#FFA180"/>
<path d="M141.58 127.518L141.601 127.841C141.815 128.263 141.979 128.709 142.089 129.169L141.479 126.912L141.603 126.948C141.845 127.686 142.049 129.007 142.049 129.007C142.049 129.007 141.713 127.866 141.58 127.518Z" fill="#FFA180"/>
<path d="M139.118 124.85C139.118 124.85 140.695 126.028 141.601 127.837V127.595C141.693 127.971 141.885 128.501 141.908 128.492C141.908 128.492 141.946 128.331 141.603 126.94L141.286 126.64L140.4 125.682L139.674 125.142L139.118 124.85Z" fill="#FFA180"/>
<path d="M140.845 151.472L140.871 151.923L140.878 152.036L141.489 162.741L141.587 164.458C141.709 164.359 141.817 164.244 141.909 164.116C142.361 163.528 143.123 162.091 143.05 159.149C142.993 156.863 142.333 154.77 141.75 153.346C141.585 152.943 141.427 152.591 141.287 152.307C141.027 151.775 140.845 151.472 140.845 151.472Z" fill="#F9AF8F"/>
<path d="M134.51 163.148C134.501 163.159 134.495 163.173 134.493 163.187C134.49 163.201 134.49 163.215 134.494 163.229C134.678 163.961 134.822 164.471 134.881 164.513C135.098 164.667 134.974 165.839 136.735 165.932C138.169 166.008 140.26 165.219 141.266 164.655C141.547 164.497 141.792 164.282 141.986 164.025L142.102 163.872C142.553 163.284 143.122 162.094 143.049 159.152C142.993 156.874 142.337 154.788 141.755 153.367C141.751 153.357 141.749 153.346 141.748 153.335L141.587 152.805C141.537 152.703 141.479 152.605 141.414 152.512L141.406 152.502C141.327 152.376 141.232 152.262 141.124 152.161L140.874 151.926L140.502 151.579C140.641 151.721 140.767 151.875 140.88 152.039C141.007 152.226 141.161 152.489 141.489 153.029C141.607 153.237 141.696 153.46 141.755 153.692C142.137 155.069 142.19 157.699 141.983 160.716C141.965 161.017 141.927 161.318 141.872 161.615C141.805 162.009 141.677 162.39 141.491 162.744C140.739 164.114 139.586 164.597 137.724 165.057C135.801 165.535 134.907 163.692 134.666 163.168C134.659 163.154 134.649 163.141 134.636 163.132C134.624 163.123 134.609 163.118 134.594 163.116C134.578 163.114 134.563 163.117 134.549 163.123C134.534 163.129 134.522 163.138 134.513 163.151L134.51 163.148Z" fill="#FFA180"/>
<path d="M135.221 159.158C135.221 159.158 135.2 156.176 135.179 155.989C135.158 155.802 135.056 155.722 134.768 155.828C134.48 155.934 133.032 156.964 132.443 159.616C131.825 162.395 132.427 163.696 132.772 164.02C133 164.236 133.451 164.617 134.881 164.514C134.881 164.51 133.878 162.873 135.221 159.158Z" fill="#FCCBC4"/>
<path d="M187.01 113.917C187.858 113.917 188.584 113.615 189.187 113.012C189.792 112.407 190.094 111.681 190.094 110.833V95.4167C190.094 94.5688 189.792 93.8427 189.187 93.2384C188.584 92.6351 187.858 92.3334 187.01 92.3334H173.135V89.2501C173.135 87.9654 173.585 86.8733 174.484 85.974C175.384 85.0747 176.476 84.6251 177.76 84.6251C178.814 84.6251 179.745 84.9396 180.554 85.5686C181.364 86.1986 181.91 86.989 182.193 87.9397C182.321 88.3251 182.52 88.6396 182.789 88.8832C183.06 89.1278 183.375 89.2501 183.734 89.2501C184.248 89.2501 184.659 89.0764 184.968 88.729C185.276 88.3826 185.379 87.9911 185.276 87.5542C184.891 85.8327 184.004 84.4 182.617 83.2561C181.229 82.1132 179.61 81.5417 177.76 81.5417C175.628 81.5417 173.81 82.2931 172.306 83.7957C170.803 85.2993 170.052 87.1174 170.052 89.2501V92.3334H168.51C167.663 92.3334 166.936 92.6351 166.332 93.2384C165.729 93.8427 165.427 94.5688 165.427 95.4167V110.833C165.427 111.681 165.729 112.407 166.332 113.012C166.936 113.615 167.663 113.917 168.51 113.917H187.01ZM177.76 106.208C176.913 106.208 176.186 105.907 175.582 105.303C174.979 104.699 174.677 103.973 174.677 103.125C174.677 102.277 174.979 101.551 175.582 100.947C176.186 100.343 176.913 100.042 177.76 100.042C178.608 100.042 179.334 100.343 179.937 100.947C180.542 101.551 180.844 102.277 180.844 103.125C180.844 103.973 180.542 104.699 179.937 105.303C179.334 105.907 178.608 106.208 177.76 106.208Z" fill="#432762"/>
<defs>
<filter id="filter0_di_768_10040" x="0.181568" y="0.681639" width="413.364" height="262.516" filterUnits="userSpaceOnUse" color-interpolation-filters="sRGB">
<feFlood flood-opacity="0" result="BackgroundImageFix"/>
<feColorMatrix in="SourceAlpha" type="matrix" values="0 0 0 0 0 0 0 0 0 0 0 0 0 0 0 0 0 0 127 0" result="hardAlpha"/>
<feMorphology radius="9.50007" operator="dilate" in="SourceAlpha" result="effect1_dropShadow_768_10040"/>
<feOffset dx="0.863643" dy="10.3637"/>
<feGaussianBlur stdDeviation="12.091"/>
<feComposite in2="hardAlpha" operator="out"/>
<feColorMatrix type="matrix" values="0 0 0 0 0 0 0 0 0 0 0 0 0 0 0 0 0 0 0.12 0"/>
<feBlend mode="normal" in2="BackgroundImageFix" result="effect1_dropShadow_768_10040"/>
<feBlend mode="normal" in="SourceGraphic" in2="effect1_dropShadow_768_10040" result="shape"/>
<feColorMatrix in="SourceAlpha" type="matrix" values="0 0 0 0 0 0 0 0 0 0 0 0 0 0 0 0 0 0 127 0" result="hardAlpha"/>
<feOffset dy="1.72729"/>
<feGaussianBlur stdDeviation="0.863643"/>
<feComposite in2="hardAlpha" operator="arithmetic" k2="-1" k3="1"/>
<feColorMatrix type="matrix" values="0 0 0 0 0 0 0 0 0 0 0 0 0 0 0 0 0 0 0.25 0"/>
<feBlend mode="normal" in2="shape" result="effect2_innerShadow_768_10040"/>
</filter>
</defs>
</svg>
