<svg width="36" height="36" viewBox="0 0 36 36" fill="none" xmlns="http://www.w3.org/2000/svg">
<g clip-path="url(#clip0_852_9729)">
<rect width="36" height="36" rx="18" fill="#432762"/>
<g clip-path="url(#clip1_852_9729)">
<path fill-rule="evenodd" clip-rule="evenodd" d="M16.5455 7.30282C15.8919 6.40924 14.9035 5.76236 13.7308 5.57072C11.3626 5.18372 9.14018 6.8069 8.76576 9.18903C8.61331 10.1589 8.7909 11.1059 9.21487 11.914C8.47336 13.0378 7.95966 14.3209 7.74007 15.7191C7.52135 17.1117 7.63954 18.3308 8.03356 19.3919C6.34868 18.2128 4.51334 17.9967 3.66728 18.9743C2.78956 19.9885 3.28042 21.9429 4.73708 23.5631L4.59242 23.743C4.83653 23.962 5.10213 24.1836 5.37802 24.4138C5.54032 24.5493 5.70618 24.6877 5.87333 24.8303C6.27859 25.1755 6.70131 25.4657 7.12523 25.698C7.11526 25.7513 7.10603 25.8049 7.09756 25.8588C7.04524 26.1921 6.9754 26.588 6.90307 26.9982L6.90306 26.9982L6.90305 26.9983C6.78128 27.6887 6.65244 28.4193 6.58815 28.9583C6.57485 29.0084 6.56155 29.061 6.55317 29.1142C6.46846 29.6533 6.66202 30.2118 7.08537 30.7613C7.10322 30.8531 7.12335 30.9446 7.14573 31.0357C7.12108 31.2003 7.0958 31.3662 7.06954 31.5332C6.40101 35.7881 7.88933 39.5658 10.3945 39.9749C11.9031 40.2212 13.4364 39.1876 14.5635 37.3966C14.9741 37.503 15.3958 37.592 15.827 37.6621C15.9073 37.6751 15.9875 37.6874 16.0676 37.699C16.0941 41.0284 17.4735 43.6898 19.5525 44.0294C22.0572 44.4384 24.6303 41.3179 25.2989 37.0615C25.3658 36.6357 25.4376 36.2191 25.5076 35.8132C25.573 35.4339 25.6368 35.0639 25.6935 34.7045C26.0936 34.203 26.4065 33.6519 26.6166 33.059C26.7436 32.8579 26.8269 32.6437 26.8625 32.4172C26.8637 32.4094 26.8639 32.4017 26.8641 32.394C26.8643 32.3837 26.8646 32.3734 26.8674 32.363C27.0487 31.5269 27.3305 30.1047 27.3226 29.1483C27.3211 28.9786 27.314 28.8092 27.3016 28.6402C27.7555 28.5647 28.2242 28.4414 28.6948 28.2677C28.9081 28.1889 29.1189 28.1138 29.3251 28.0402L29.3253 28.0401L29.3254 28.0401C29.6715 27.9167 30.005 27.7978 30.3171 27.6737L30.158 27.211C32.0412 26.1939 33.1347 24.5458 32.6576 23.3C32.2303 22.1843 30.6716 21.7245 28.8813 22.0651C29.3428 21.2989 29.6701 20.3869 29.8387 19.3133C30.0584 17.9143 29.9631 16.5314 29.6024 15.2277C30.2517 14.5948 30.7099 13.7521 30.862 12.7831C31.2359 10.401 29.6205 8.15718 27.2523 7.77018C26.0792 7.57848 24.9418 7.87954 24.0472 8.52175C22.9379 7.94137 21.709 7.5235 20.393 7.30943C19.0756 7.09514 17.7785 7.10262 16.5455 7.30282Z" fill="white"/>
<path d="M27.3806 28.0141C27.8217 27.8412 28.2939 27.6288 28.7913 27.4244C30.9431 26.5438 32.284 24.7757 31.7871 23.4783C31.2902 22.1809 29.1429 21.8403 26.9919 22.7208C26.4932 22.9248 26.0105 23.1061 25.5762 23.2961L27.3806 28.0141Z" fill="#E6E7E8"/>
<path d="M27.8921 22.5137C27.424 22.6782 26.9235 22.8854 26.3933 23.0787C24.1099 23.9217 22.6403 25.7246 23.1152 27.1071C23.5902 28.4895 25.8279 28.9263 28.1136 28.0829C28.6434 27.8873 29.1558 27.7158 29.6175 27.5322L27.8921 22.5137Z" fill="#3A1A52"/>
<path d="M8.87191 24.751L8.73541 25.6201L9.15796 25.6888L9.29446 24.8197L8.87191 24.751Z" fill="#A7A9AC"/>
<path d="M25.3927 33.6436C25.278 34.4499 25.1095 35.3198 24.9657 36.2352C24.3459 40.1808 21.9607 43.0735 19.6389 42.6943C17.3172 42.3151 15.9366 38.8119 16.5563 34.8658C16.7002 33.9508 16.8125 33.0716 16.9582 32.2705L25.3927 33.6436Z" fill="#E6E7E8"/>
<path d="M16.9039 29.8845C16.7893 30.6908 16.6207 31.5606 16.4769 32.4761C15.8572 36.4217 13.4719 39.3143 11.1497 38.9352C8.82749 38.556 7.44786 35.0541 8.06757 31.1099C8.21143 30.1949 8.32377 29.3158 8.469 28.5146L16.9039 29.8845Z" fill="#E6E7E8"/>
<path d="M7.52645 25.2661C7.1707 24.9502 6.79987 24.5863 6.39982 24.2206C4.67494 22.6435 4.00773 20.5157 4.91378 19.4688C5.81984 18.4218 7.9498 18.8517 9.67468 20.4288C10.0747 20.7945 10.467 21.1328 10.8114 21.4632L7.52645 25.2661Z" fill="#E6E7E8"/>
<path d="M8.97492 19.9053C9.34757 20.2129 9.73575 20.5684 10.1541 20.9248C11.9575 22.462 12.7051 24.5958 11.8228 25.6938C10.9405 26.7919 8.76302 26.4336 6.95867 24.8964C6.54035 24.5396 6.13071 24.211 5.7713 23.8885L8.97492 19.9053Z" fill="#3A1A52"/>
<path d="M26.833 29.2321C26.7417 29.9844 26.5453 30.7869 26.4115 31.6387C25.837 35.3092 21.2565 37.6154 16.1855 36.7916C11.1145 35.9677 7.47068 32.3222 8.04747 28.6517C8.18082 27.8004 8.25343 26.9788 8.41281 26.2354L26.833 29.2321Z" fill="#F1F2F2"/>
<path d="M26.8416 28.8997C26.8065 25.0493 23.7266 21.3323 18.5497 20.4889C13.3728 19.6455 8.69086 22.0489 8.09352 25.8504C7.96337 26.6794 7.7163 27.9271 7.62132 28.7236C7.60899 28.77 7.59665 28.8188 7.58889 28.8681C7.26921 30.9025 11.2245 33.2361 16.4234 34.0832C21.6222 34.9303 26.0954 33.9647 26.4151 31.9299C26.4178 31.9132 26.4151 31.8964 26.4197 31.8797C26.5877 31.1046 26.8489 29.7863 26.8416 28.8997Z" fill="url(#paint0_radial_852_9729)"/>
<path d="M12.986 15.0422C15.1813 15.3995 17.2418 13.8986 17.5889 11.6899C17.936 9.48131 16.4376 7.40185 14.2424 7.04312C12.0471 6.68438 9.987 8.18902 9.63992 10.3972C9.29285 12.6054 10.7912 14.6853 12.986 15.044" fill="#E6E7E8"/>
<path d="M25.5201 17.0808C27.7149 17.4382 29.7759 15.9372 30.1225 13.7291C30.4691 11.5209 28.9717 9.44096 26.7764 9.08223C24.5811 8.72349 22.5211 10.2263 22.174 12.4345C21.8269 14.6426 23.3253 16.7225 25.5201 17.0813" fill="#E6E7E8"/>
<path d="M17.8214 25.1842C23.4778 26.1043 28.3533 25.0076 29.174 19.7823C29.9947 14.5569 26.0745 9.57503 20.4181 8.65496C14.7616 7.73489 9.50978 11.2251 8.68912 16.4505C7.86847 21.6758 12.1645 24.2641 17.8227 25.1865" fill="#F1F2F2"/>
<path d="M18.1328 23.2021C20.9295 23.657 23.4303 22.5487 23.7153 20.7267C24.0002 18.9047 21.9662 17.059 19.169 16.604C16.3718 16.1491 13.8715 17.2574 13.587 19.0794C13.3025 20.9014 15.3361 22.7471 18.1328 23.2021Z" fill="white"/>
<path d="M14.1003 20.9805C14.8548 22.0125 16.3751 22.8773 18.1041 23.1975C19.8331 23.5176 21.4598 23.2337 22.5238 22.539C21.2698 22.7923 19.744 23.046 18.1881 22.7579C16.6322 22.4698 15.1836 21.6668 14.1003 20.9805Z" fill="#939598"/>
<path d="M15.4064 15.5898C15.5181 15.6067 15.6322 15.5896 15.7344 15.5407C15.8365 15.4917 15.9221 15.4131 15.9805 15.3148C16.0388 15.2164 16.0673 15.1027 16.0622 14.9879C16.0572 14.8731 16.0189 14.7624 15.9522 14.6697C15.8854 14.5771 15.7932 14.5066 15.6872 14.4671C15.5811 14.4276 15.466 14.4209 15.3562 14.4479C15.2465 14.4749 15.147 14.5343 15.0704 14.6187C14.9937 14.703 14.9433 14.8086 14.9255 14.9221C14.9023 15.0755 14.9399 15.232 15.0301 15.3572C15.1203 15.4825 15.2556 15.5661 15.4064 15.5898Z" fill="#939598"/>
<path d="M15.5091 15.3157C15.5854 15.3272 15.6633 15.3154 15.7331 15.2819C15.8028 15.2485 15.8613 15.1947 15.9011 15.1275C15.9409 15.0603 15.9603 14.9826 15.9568 14.9043C15.9534 14.8259 15.9272 14.7503 15.8816 14.687C15.836 14.6237 15.773 14.5756 15.7006 14.5486C15.6281 14.5217 15.5495 14.5171 15.4745 14.5355C15.3996 14.554 15.3316 14.5945 15.2793 14.6522C15.2269 14.7098 15.1925 14.7819 15.1803 14.8594C15.1724 14.9113 15.1747 14.9643 15.187 15.0153C15.1993 15.0664 15.2213 15.1144 15.2518 15.1568C15.2824 15.1992 15.3208 15.235 15.3649 15.2623C15.4091 15.2895 15.4581 15.3077 15.5091 15.3157Z" fill="white"/>
<path d="M23.1979 16.8574C23.3096 16.8743 23.4236 16.8571 23.5257 16.8081C23.6278 16.7591 23.7134 16.6804 23.7717 16.582C23.83 16.4836 23.8583 16.3699 23.8532 16.2551C23.8481 16.1404 23.8098 16.0297 23.743 15.9371C23.6762 15.8445 23.584 15.774 23.478 15.7346C23.372 15.6952 23.2568 15.6885 23.1471 15.7155C23.0374 15.7425 22.9379 15.802 22.8613 15.8863C22.7847 15.9707 22.7343 16.0763 22.7165 16.1897C22.705 16.2657 22.7084 16.3433 22.7263 16.418C22.7443 16.4927 22.7766 16.563 22.8213 16.625C22.866 16.687 22.9222 16.7395 22.9868 16.7794C23.0515 16.8192 23.1232 16.8458 23.1979 16.8574Z" fill="#939598"/>
<path d="M23.3007 16.5832C23.377 16.5947 23.4549 16.583 23.5246 16.5495C23.5944 16.516 23.6529 16.4623 23.6927 16.3951C23.7325 16.3279 23.7519 16.2502 23.7484 16.1718C23.7449 16.0934 23.7187 16.0178 23.6731 15.9546C23.6275 15.8913 23.5646 15.8431 23.4921 15.8162C23.4197 15.7892 23.341 15.7847 23.2661 15.8031C23.1911 15.8215 23.1232 15.8621 23.0708 15.9197C23.0185 15.9774 22.984 16.0494 22.9719 16.1269C22.964 16.1789 22.9663 16.2319 22.9785 16.2829C22.9908 16.3339 23.0129 16.382 23.0434 16.4244C23.0739 16.4668 23.1124 16.5026 23.1565 16.5299C23.2006 16.5571 23.2496 16.5753 23.3007 16.5832Z" fill="white"/>
<path d="M18.5428 19.9109L18.0793 22.8623L18.2867 22.896L18.7503 19.9447L18.5428 19.9109Z" fill="#939598"/>
<path d="M18.99 17.7445C20.149 17.9332 21.1149 17.9225 20.9711 18.8374C20.8272 19.7524 19.7709 20.3421 18.6114 20.1539C17.4519 19.9657 16.6289 19.0702 16.7728 18.1558C16.9166 17.2413 17.8309 17.5568 18.99 17.7454" fill="#939598"/>
<path d="M16.2052 27.6318C16.2213 27.5277 16.2376 27.4236 16.2541 27.3195C16.2617 27.306 16.2686 27.2921 16.2746 27.2777C16.455 26.7168 16.8857 26.4687 17.451 26.5997C17.6157 26.6356 17.7642 26.7258 17.8735 26.8562C17.9456 26.9427 18.0105 27.0361 18.079 27.1267C18.079 27.1267 18.0826 27.1267 18.0863 27.1225C18.1169 27.0979 18.1484 27.0737 18.1776 27.0477C18.4626 26.7996 18.7905 26.7652 19.1334 26.8813C19.4833 27.0003 19.6554 27.2773 19.7189 27.6295C19.731 27.7201 19.7384 27.8113 19.7413 27.9027C19.7258 28.0015 19.7105 28.1004 19.6956 28.1992C19.6819 28.2331 19.6682 28.267 19.6554 28.3009C19.5294 28.643 19.301 28.9101 19.0339 29.1462C18.6265 29.5054 18.1598 29.7735 17.678 30.0166C17.6695 30.0231 17.6597 30.0277 17.6494 30.0304C17.639 30.033 17.6283 30.0335 17.6177 30.0319C17.6072 30.0302 17.5971 30.0265 17.588 30.0208C17.5789 30.0151 17.571 30.0077 17.5647 29.9989C17.3734 29.7889 17.1738 29.5872 16.9898 29.3711C16.728 29.0728 16.5141 28.7344 16.3559 28.3683C16.2592 28.1354 16.2081 27.8856 16.2052 27.6327" fill="white"/>
<path d="M22.0565 31.0271C21.9652 30.8877 21.4857 30.9904 21.4857 30.9904C21.3905 31.0107 21.2927 31.0151 21.1961 31.0034C21.1249 30.9904 21.1048 30.9541 21.1505 30.9281C21.1776 30.9168 21.2062 30.9096 21.2354 30.9067C21.249 30.9036 21.2615 30.8965 21.2713 30.8864C21.2811 30.8762 21.2878 30.8635 21.2907 30.8496C21.3208 30.7232 21.3688 30.4072 21.0938 30.3681C20.8354 30.3305 20.7614 30.5159 20.8399 30.7594C20.8897 30.9128 20.7573 30.9016 20.6573 30.8728C20.3253 30.7761 19.8466 30.489 19.7439 29.9062C20.5075 30.2487 21.8501 30.1971 22.21 30.5443C22.2136 30.547 22.373 30.8784 22.0552 31.0271" fill="white"/>
<path d="M21.2743 32.1671C20.9188 32.3461 20.5194 32.415 20.1257 32.365C20.1317 32.3492 20.3381 31.78 21.0633 31.4886C21.6204 31.2647 22.2927 31.1197 22.2118 30.5439C22.2577 30.5925 22.2931 30.6502 22.316 30.7134C22.3389 30.7765 22.3487 30.8438 22.3447 30.911C22.3114 31.2991 21.831 31.8971 21.2743 32.1657" fill="#A7A9AC"/>
<path d="M17.1094 30.9524L17.1208 30.9622L17.072 31.0012C17.0565 31.0153 17.0382 31.0259 17.0183 31.0321C16.9984 31.0382 16.9775 31.0399 16.9569 31.037C16.9319 31.0326 16.9076 31.0246 16.8847 31.0133C16.8444 30.9883 16.7992 30.9725 16.7523 30.9668C16.5504 30.9338 16.4988 31.1671 16.4984 31.169L16.2632 31.7828C16.2084 31.9399 16.0883 32.037 15.96 32.0151C15.8919 32.004 15.8106 31.991 15.765 31.9845C15.8563 31.7484 16.0942 31.1174 16.1088 31.0779C16.1545 30.9603 16.3134 30.7363 16.7993 30.8153C16.9126 30.8314 17.0197 30.8779 17.1094 30.9501" fill="white"/>
<path d="M18.4082 31.0783C18.5498 31.0989 18.6846 31.153 18.8019 31.2363C18.7842 31.264 18.7592 31.286 18.7298 31.2999C18.7004 31.3138 18.6678 31.3189 18.6356 31.3148C18.6099 31.3094 18.585 31.3003 18.5616 31.2879C18.5134 31.2638 18.4618 31.2474 18.4087 31.2391C18.3533 31.2243 18.2951 31.2243 18.2397 31.2391C18.2199 31.2453 18.2016 31.2559 18.1863 31.2701C18.171 31.2843 18.159 31.3018 18.1511 31.3213C18.1205 31.4115 18.1968 31.4468 18.3374 31.5625C18.4781 31.6782 18.5457 31.7674 18.5749 31.8334C18.5891 31.8695 18.596 31.908 18.5951 31.9469C18.5942 31.9857 18.5857 32.0239 18.5699 32.0593C18.5476 32.1178 18.513 32.1707 18.4685 32.2142C18.424 32.2577 18.3707 32.2908 18.3123 32.3111C18.164 32.3636 18.0048 32.3756 17.8506 32.346C17.6847 32.3232 17.5287 32.252 17.4017 32.141L17.493 32.0667C17.51 32.0554 17.5298 32.0494 17.5501 32.0494C17.5704 32.0494 17.5902 32.0554 17.6072 32.0667C17.6826 32.1288 17.7726 32.1699 17.8684 32.1861C18.0597 32.2168 18.1337 32.1457 18.1579 32.0932C18.1671 32.0715 18.1702 32.0477 18.167 32.0244C18.1637 32.001 18.1543 31.979 18.1397 31.9607C18.0786 31.8913 18.0082 31.8309 17.9305 31.7814C17.8558 31.7311 17.7959 31.6611 17.7574 31.5788C17.7283 31.5027 17.7283 31.4183 17.7574 31.3423C17.7771 31.2885 17.8081 31.2398 17.8484 31.1996C17.8886 31.1594 17.9371 31.1288 17.9903 31.1099C18.1249 31.0614 18.2697 31.0499 18.41 31.0765" fill="white"/>
<path d="M19.5846 31.2917L19.9527 31.3517C19.934 31.3963 19.9054 31.4359 19.8691 31.4674C19.8273 31.4905 19.7788 31.4979 19.7321 31.4883L19.702 31.4836L19.5243 31.4548L19.5156 31.4762L19.3047 32.0273C19.2558 32.1551 19.2101 32.2597 19.2156 32.3168C19.2167 32.3351 19.2245 32.3523 19.2375 32.365C19.2504 32.3777 19.2675 32.3851 19.2855 32.3856C19.33 32.3909 19.3748 32.3793 19.4115 32.3531C19.4505 32.3225 19.4996 32.3084 19.5485 32.3136C19.5883 32.3214 19.6239 32.3435 19.649 32.3758C19.4508 32.5478 19.2421 32.5729 19.1288 32.5547H19.122C18.9462 32.5227 18.8704 32.4534 18.8411 32.3624C18.8242 32.3085 18.8119 32.2072 18.8745 32.045L19.1138 31.426L19.1238 31.3889L18.9064 31.3535L18.9398 31.2699C18.9549 31.2447 18.9778 31.2252 19.0048 31.2145C19.0319 31.2037 19.0616 31.2023 19.0896 31.2104L19.1873 31.2262L19.1951 31.2039C19.2297 31.115 19.2945 31.0416 19.3777 30.9971C19.4823 30.9451 19.6097 30.966 19.7006 30.9809L19.5951 31.2564L19.5846 31.2917Z" fill="white"/>
<path d="M17.4797 30.9508C17.5035 30.9545 17.6487 30.9759 17.6784 30.9829L17.5414 31.3402L17.313 31.9443L17.3085 31.9559C17.2532 32.113 17.1331 32.2101 17.0043 32.1882C16.9367 32.1771 16.855 32.1641 16.8102 32.1576C16.9016 31.9215 17.1258 31.3323 17.1404 31.2933L17.224 31.0739C17.2697 30.9619 17.3747 30.9345 17.4811 30.9522" fill="white"/>
<path d="M16.0969 30.7222C16.1211 30.7264 16.1645 30.7347 16.1832 30.7389L15.2543 31.7501C15.2543 31.7501 15.131 31.8839 15.0159 31.8653C15.0104 31.8653 14.9068 31.8477 14.9027 31.8463L14.8456 30.6149C14.8464 30.6022 14.8499 30.59 14.8559 30.5789C14.8619 30.5679 14.8703 30.5583 14.8804 30.551C14.8905 30.5437 14.9021 30.5387 14.9143 30.5365C14.9265 30.5343 14.9391 30.5348 14.9511 30.5382L15.289 30.593L15.2959 31.3732V31.4234L15.3192 31.3918L15.8215 30.824C15.8543 30.7839 15.8969 30.7533 15.945 30.7355C15.9932 30.7176 16.0451 30.713 16.0955 30.7222" fill="white"/>
<path d="M14.6328 30.6163C14.5789 30.5085 14.4606 30.4407 14.2378 30.4049C14.0708 30.3703 13.8975 30.3853 13.7386 30.4481L13.7194 30.4565L13.7304 30.4941C13.7359 30.5025 13.745 30.5661 13.7948 30.574C13.8266 30.5785 13.8589 30.5754 13.8893 30.5652C13.9696 30.5364 14.0558 30.5292 14.1396 30.5443C14.173 30.5485 14.2041 30.5638 14.228 30.5878C14.252 30.6119 14.2674 30.6433 14.272 30.6772C14.273 30.7018 14.2682 30.7264 14.2581 30.7488C14.2481 30.7713 14.233 30.791 14.214 30.8064L14.1802 30.8213C14.1591 30.8282 14.1376 30.8339 14.1158 30.8384C14.0406 30.8536 13.9642 30.862 13.8875 30.8635C13.7341 30.8733 13.3454 30.8463 13.2322 31.1865C13.1696 31.3724 13.2349 31.6047 13.7245 31.6842C13.9702 31.7237 14.3104 31.6647 14.3994 31.4323C14.467 31.2562 14.625 30.8463 14.625 30.8463C14.6301 30.8319 14.6853 30.7199 14.6333 30.614M13.9985 31.3742C13.9779 31.41 13.9359 31.548 13.777 31.5392C13.6898 31.5345 13.529 31.4704 13.6162 31.2427C13.6421 31.1711 13.6899 31.1099 13.7525 31.0681C13.8152 31.0262 13.8894 31.006 13.9642 31.0104C14.0353 31.0107 14.1055 30.9948 14.1697 30.9639L13.9985 31.3742Z" fill="white"/>
<path d="M15.1575 26.9561C15.1664 26.8934 15.1793 26.8313 15.1959 26.7702C15.2051 26.735 15.2206 26.7017 15.2416 26.6722C15.2615 26.6474 15.2871 26.628 15.316 26.6155C15.3611 26.5988 15.4083 26.5888 15.4562 26.5857L15.4791 26.4408L14.3346 26.2549L14.3122 26.3999C14.3555 26.4177 14.3965 26.441 14.4342 26.4691C14.4615 26.4899 14.482 26.5185 14.4931 26.5514C14.504 26.5895 14.5075 26.6294 14.5036 26.6689C14.4995 26.7154 14.4926 26.773 14.4812 26.8432L14.1839 28.7354C14.1734 28.806 14.162 28.8631 14.1506 28.9087C14.1425 28.9476 14.127 28.9846 14.1049 29.0174C14.085 29.0455 14.0566 29.0662 14.0241 29.0764C13.9795 29.0905 13.9336 29.0995 13.8871 29.1034L13.8647 29.2479L15.0064 29.4338L15.0292 29.2888C14.9939 29.2745 14.9601 29.2566 14.9283 29.2354C14.9042 29.2195 14.8834 29.199 14.8671 29.1749C14.853 29.1516 14.8438 29.1255 14.8402 29.0983C14.836 29.0617 14.836 29.0247 14.8402 28.9881C14.8443 28.944 14.8502 28.8952 14.858 28.845L15.1575 26.9561Z" fill="white"/>
</g>
</g>
<defs>
<radialGradient id="paint0_radial_852_9729" cx="0" cy="0" r="1" gradientUnits="userSpaceOnUse" gradientTransform="translate(17.2057 27.356) scale(8.38511 8.53204)">
<stop stop-color="white"/>
<stop offset="0.01" stop-color="#552977"/>
<stop offset="1" stop-color="#3A1A52"/>
</radialGradient>
<clipPath id="clip0_852_9729">
<rect width="36" height="36" rx="18" fill="white"/>
</clipPath>
<clipPath id="clip1_852_9729">
<rect width="29.5385" height="38.3077" fill="white" transform="translate(3.23077 5.53809)"/>
</clipPath>
</defs>
</svg>
